%YAML 1.1
%TAG !u! tag:unity3d.com,2011:
--- !u!114 &11400000
MonoBehaviour:
  m_ObjectHideFlags: 0
  m_CorrespondingSourceObject: {fileID: 0}
  m_PrefabInstance: {fileID: 0}
  m_PrefabAsset: {fileID: 0}
  m_GameObject: {fileID: 0}
  m_Enabled: 1
  m_EditorHideFlags: 0
  m_Script: {fileID: 11500000, guid: 09baa61c22cc6384394d3cc4a5a57841, type: 3}
  m_Name: KnifeSettings
  m_EditorClassIdentifier: 
  itemIcon: {fileID: 0}
  useClips:
  - {fileID: 8300000, guid: 19411130cbca4924d8d869eb13328eca, type: 3}
  - {fileID: 8300000, guid: 104961ce61994b24597e574c85be1838, type: 3}
  inHandRotation: {x: 0, y: 0, z: 0}
  typeID: knife
  stackable: 0
  attackDistance: 3
  reloadSpeed: 1
  damage: 35
  reloadClip: {fileID: 0}
